%YAML 1.1
%TAG !u! tag:unity3d.com,2011:
--- !u!319 &31900000
AvatarMask:
  m_ObjectHideFlags: 0
  m_CorrespondingSourceObject: {fileID: 0}
  m_PrefabInstance: {fileID: 0}
  m_PrefabAsset: {fileID: 0}
  m_Name: LeftArm
  m_Mask: 00000000000000000000000000000000000000000100000000000000010000000000000000000000000000000100000000000000
  m_Elements:
  - m_Path: 
    m_Weight: 1
  - m_Path: LeftArm
    m_Weight: 0
  - m_Path: LeftArmor
    m_Weight: 0
  - m_Path: rig
    m_Weight: 1
  - m_Path: rig/ORG-shoulder_L
    m_Weight: 1
  - m_Path: rig/ORG-shoulder_L/ORG-upper_arm_L
    m_Weight: 1
  - m_Path: rig/ORG-shoulder_L/ORG-upper_arm_L/ORG-forearm_L
    m_Weight: 1
  - m_Path: rig/ORG-shoulder_L/ORG-upper_arm_L/ORG-forearm_L/ORG-hand_L
    m_Weight: 1
  - m_Path: rig/ORG-shoulder_L/ORG-upper_arm_L/ORG-forearm_L/ORG-hand_L/ORG-f_index_01_L
    m_Weight: 1
  - m_Path: rig/ORG-shoulder_L/ORG-upper_arm_L/ORG-forearm_L/ORG-hand_L/ORG-f_index_01_L/ORG-f_index_02_L
    m_Weight: 1
  - m_Path: rig/ORG-shoulder_L/ORG-upper_arm_L/ORG-forearm_L/ORG-hand_L/ORG-f_index_01_L/ORG-f_index_02_L/ORG-f_index_03_L
    m_Weight: 1
  - m_Path: rig/ORG-shoulder_L/ORG-upper_arm_L/ORG-forearm_L/ORG-hand_L/ORG-f_middle_01_L
    m_Weight: 1
  - m_Path: rig/ORG-shoulder_L/ORG-upper_arm_L/ORG-forearm_L/ORG-hand_L/ORG-f_middle_01_L/ORG-f_middle_02_L
    m_Weight: 1
  - m_Path: rig/ORG-shoulder_L/ORG-upper_arm_L/ORG-forearm_L/ORG-hand_L/ORG-f_middle_01_L/ORG-f_middle_02_L/ORG-f_middle_03_L
    m_Weight: 1
  - m_Path: rig/ORG-shoulder_L/ORG-upper_arm_L/ORG-forearm_L/ORG-hand_L/ORG-f_pinky_01_L
    m_Weight: 1
  - m_Path: rig/ORG-shoulder_L/ORG-upper_arm_L/ORG-forearm_L/ORG-hand_L/ORG-f_pinky_01_L/ORG-f_pinky_02_L
    m_Weight: 1
  - m_Path: rig/ORG-shoulder_L/ORG-upper_arm_L/ORG-forearm_L/ORG-hand_L/ORG-f_pinky_01_L/ORG-f_pinky_02_L/ORG-f_pinky_03_L
    m_Weight: 1
  - m_Path: rig/ORG-shoulder_L/ORG-upper_arm_L/ORG-forearm_L/ORG-hand_L/ORG-f_ring_01_L
    m_Weight: 1
  - m_Path: rig/ORG-shoulder_L/ORG-upper_arm_L/ORG-forearm_L/ORG-hand_L/ORG-f_ring_01_L/ORG-f_ring_02_L
    m_Weight: 1
  - m_Path: rig/ORG-shoulder_L/ORG-upper_arm_L/ORG-forearm_L/ORG-hand_L/ORG-f_ring_01_L/ORG-f_ring_02_L/ORG-f_ring_03_L
    m_Weight: 1
  - m_Path: rig/ORG-shoulder_L/ORG-upper_arm_L/ORG-forearm_L/ORG-hand_L/ORG-thumb_01_L
    m_Weight: 1
  - m_Path: rig/ORG-shoulder_L/ORG-upper_arm_L/ORG-forearm_L/ORG-hand_L/ORG-thumb_01_L/ORG-thumb_02_L
    m_Weight: 1
  - m_Path: rig/ORG-shoulder_L/ORG-upper_arm_L/ORG-forearm_L/ORG-hand_L/ORG-thumb_01_L/ORG-thumb_02_L/ORG-thumb_03_L
    m_Weight: 1
  - m_Path: rig/ORG-shoulder_R
    m_Weight: 0
  - m_Path: rig/ORG-shoulder_R/ORG-upper_arm_R
    m_Weight: 0
  - m_Path: rig/ORG-shoulder_R/ORG-upper_arm_R/ORG-forearm_R
    m_Weight: 0
  - m_Path: rig/ORG-shoulder_R/ORG-upper_arm_R/ORG-forearm_R/ORG-hand_R
    m_Weight: 0
  - m_Path: rig/ORG-shoulder_R/ORG-upper_arm_R/ORG-forearm_R/ORG-hand_R/ORG-f_index_01_R
    m_Weight: 0
  - m_Path: rig/ORG-shoulder_R/ORG-upper_arm_R/ORG-forearm_R/ORG-hand_R/ORG-f_index_01_R/ORG-f_index_02_R
    m_Weight: 0
  - m_Path: rig/ORG-shoulder_R/ORG-upper_arm_R/ORG-forearm_R/ORG-hand_R/ORG-f_index_01_R/ORG-f_index_02_R/ORG-f_index_03_R
    m_Weight: 0
  - m_Path: rig/ORG-shoulder_R/ORG-upper_arm_R/ORG-forearm_R/ORG-hand_R/ORG-f_middle_01_R
    m_Weight: 0
  - m_Path: rig/ORG-shoulder_R/ORG-upper_arm_R/ORG-forearm_R/ORG-hand_R/ORG-f_middle_01_R/ORG-f_middle_02_R
    m_Weight: 0
  - m_Path: rig/ORG-shoulder_R/ORG-upper_arm_R/ORG-forearm_R/ORG-hand_R/ORG-f_middle_01_R/ORG-f_middle_02_R/ORG-f_middle_03_R
    m_Weight: 0
  - m_Path: rig/ORG-shoulder_R/ORG-upper_arm_R/ORG-forearm_R/ORG-hand_R/ORG-f_pinky_01_R
    m_Weight: 0
  - m_Path: rig/ORG-shoulder_R/ORG-upper_arm_R/ORG-forearm_R/ORG-hand_R/ORG-f_pinky_01_R/ORG-f_pinky_02_R
    m_Weight: 0
  - m_Path: rig/ORG-shoulder_R/ORG-upper_arm_R/ORG-forearm_R/ORG-hand_R/ORG-f_pinky_01_R/ORG-f_pinky_02_R/ORG-f_pinky_03_R
    m_Weight: 0
  - m_Path: rig/ORG-shoulder_R/ORG-upper_arm_R/ORG-forearm_R/ORG-hand_R/ORG-f_ring_01_R
    m_Weight: 0
  - m_Path: rig/ORG-shoulder_R/ORG-upper_arm_R/ORG-forearm_R/ORG-hand_R/ORG-f_ring_01_R/ORG-f_ring_02_R
    m_Weight: 0
  - m_Path: rig/ORG-shoulder_R/ORG-upper_arm_R/ORG-forearm_R/ORG-hand_R/ORG-f_ring_01_R/ORG-f_ring_02_R/ORG-f_ring_03_R
    m_Weight: 0
  - m_Path: rig/ORG-shoulder_R/ORG-upper_arm_R/ORG-forearm_R/ORG-hand_R/ORG-thumb_01_R
    m_Weight: 0
  - m_Path: rig/ORG-shoulder_R/ORG-upper_arm_R/ORG-forearm_R/ORG-hand_R/ORG-thumb_01_R/ORG-thumb_02_R
    m_Weight: 0
  - m_Path: rig/ORG-shoulder_R/ORG-upper_arm_R/ORG-forearm_R/ORG-hand_R/ORG-thumb_01_R/ORG-thumb_02_R/ORG-thumb_03_R
    m_Weight: 1
  - m_Path: RightArm
    m_Weight: 0
  - m_Path: RightArmor
    m_Weight: 0
