%YAML 1.1
%TAG !u! tag:unity3d.com,2011:
--- !u!1045 &1
EditorBuildSettings:
  m_ObjectHideFlags: 0
  serializedVersion: 2
  m_Scenes:
  - enabled: 1
    path: Assets/Scenes/InitialLoading.unity
    guid: 9fc0d4010bbf28b4594072e72b8655ab
  - enabled: 1
    path: Assets/Scenes/MainMenu.unity
    guid: e9b0b8fc80a92cb439f5c653622274e8
  - enabled: 1
    path: Assets/Scenes/Map_v1.unity
    guid: 5a463281e6e238742a45430f11e82829
  - enabled: 1
    path: Assets/Scenes/Tutorial.unity
    guid: 79b96aa09213d0847affbbac973648df
  m_configObjects: {}
